{
  "users": [
      {
          "id":7,
          "Username": "anhnt anhnt@aibb.vn",
          "First name": "anhnt",
          "Last name": "nguyễn",
          "Access Level": "Employee",
          "User Status": "working",
          "Create At": "",
          "Update At": "",
          "Phone number": "123456"
      },{
          "id":4,
          "Username": "anhnt anhnt@aibb.vn",
          "First name": "",
          "Last name": "",
          "Access Level": "Manager",
          "User Status": "working",
          "Create At": "",
          "Update At": "",
          "Phone number": ""
      },{
          "id":2,
          "Username": "dangnh dangnh@aibb.vn",
          "First name": "",
          "Last name": "",
          "Access Level": "Director",
          "User Status": "working",
          "Create At": "",
          "Update At": "",
          "Phone number": ""
      },{
          "id":12,
          "Username": "duongnh duongnh@aibb.vn",
          "First name": "",
          "Last name": "",
          "Access Level": "Employee",
          "User Status": "working",
          "Create At": "",
          "Update At": "",
          "Phone number": ""
      },{
          "id":9,
          "Username": "hanv hanv@aibb.vn",
          "First name": "",
          "Last name": "",
          "Access Level": "Manager",
          "User Status": "working",
          "Create At": "",
          "Update At": "",
          "Phone number": ""
      },{
          "id":6,
          "Username": "hieplt hieplt@aibb.vn",
          "First name": "",
          "Last name": "",
          "Access Level": "Member",
          "User Status": "working",
          "Create At": "",
          "Update At": "",
          "Phone number": ""
      },{
          "id":1,
          "Username": "phongw phongw@aibb.vn",
          "First name": "Phong",
          "Last name": "Vũ",
          "Access Level": "Admin",
          "User Status": "working",
          "Create At": "",
          "Update At": "",
          "Phone number": "123456"
      },{
          "id":10,
          "Username": "Son Tran sontpn@aibb.vn",
          "First name": "",
          "Last name": "",
          "Access Level": "Manager",
          "User Status": "working",
          "Create At": "",
          "Update At": "",
          "Phone number": ""
      },{
          "id":3,
          "Username": "sonnn sonnn@aibb.vn",
          "First name": "",
          "Last name": "",
          "Access Level": "Manager",
          "User Status": "working",
          "Create At": "",
          "Update At": "",
          "Phone number": ""
      },{
          "id":11,
          "Username": "thuantm thuantm@aibb.vn",
          "First name": "",
          "Last name": "",
          "Access Level": "Employee",
          "User Status": "working",
          "Create At": "",
          "Update At": "",
          "Phone number": "123456"
      }
  ]
}